"Chicago","Theft"
"San Francisco","Robbery"
"Arlington Heights","Assault"
"Mobile","Theft"
"Madison","Theft"
"2241 S Canal St Chicago IL","Robbery"
"5100 N Marine Dr Chicago IL", "Robbery"
"Birmingham AL", "Theft"
